﻿CHARACTERS = {
	c:C35 ?= {
		create_character = {
            ig_leader = yes
            ig_leader = yes
            ruler = yes
            interest_group = ig_landowners
            traits = {}
        }
    }
}
